<define-tag pagetitle>DLA-3240-1 libde265</define-tag>
<define-tag report_date>2022-12-15</define-tag>
<define-tag secrefs>CVE-2020-21599 CVE-2021-35452 CVE-2021-36408 CVE-2021-36409 CVE-2021-36410 CVE-2021-36411 Bug#1014977</define-tag>
<define-tag packages>libde265</define-tag>
<define-tag isvulnerable>yes</define-tag>
<define-tag fixed>yes</define-tag>
<define-tag fixed-section>no</define-tag>

#use wml::debian::security

