<define-tag pagetitle>DLA-2955-1 bind9</define-tag>
<define-tag report_date>2022-3-19</define-tag>
<define-tag secrefs>CVE-2021-25220</define-tag>
<define-tag packages>bind9</define-tag>
<define-tag isvulnerable>yes</define-tag>
<define-tag fixed>yes</define-tag>
<define-tag fixed-section>no</define-tag>

#use wml::debian::security

