<define-tag pagetitle>DLA-3137-1 nodejs</define-tag>
<define-tag report_date>2022-10-05</define-tag>
<define-tag secrefs>CVE-2021-22930 CVE-2021-22939 CVE-2021-22940 CVE-2022-21824 CVE-2022-32212 Bug#1004177</define-tag>
<define-tag packages>nodejs</define-tag>
<define-tag isvulnerable>yes</define-tag>
<define-tag fixed>yes</define-tag>
<define-tag fixed-section>no</define-tag>

#use wml::debian::security

