<define-tag pagetitle>DLA-3147-1 twig</define-tag>
<define-tag report_date>2022-10-11</define-tag>
<define-tag secrefs>CVE-2022-39261</define-tag>
<define-tag packages>twig</define-tag>
<define-tag isvulnerable>yes</define-tag>
<define-tag fixed>yes</define-tag>
<define-tag fixed-section>no</define-tag>

#use wml::debian::security
