<define-tag pagetitle>DLA-3080-1 firefox-esr</define-tag>
<define-tag report_date>2022-08-24</define-tag>
<define-tag secrefs>CVE-2022-38472 CVE-2022-38473 CVE-2022-38478</define-tag>
<define-tag packages>firefox-esr</define-tag>
<define-tag isvulnerable>yes</define-tag>
<define-tag fixed>yes</define-tag>
<define-tag fixed-section>no</define-tag>

#use wml::debian::security

