<define-tag pagetitle>DSA-4949-1 jetty9</define-tag>
<define-tag report_date>2021-8-04</define-tag>
<define-tag secrefs>CVE-2019-10241 CVE-2019-10247 CVE-2020-27216 CVE-2020-27223 CVE-2021-28165 CVE-2021-28169 CVE-2021-34428</define-tag>
<define-tag packages>jetty9</define-tag>
<define-tag isvulnerable>yes</define-tag>
<define-tag fixed>yes</define-tag>
<define-tag fixed-section>no</define-tag>

#use wml::debian::security



</dl>
