<define-tag pagetitle>DSA-5013-1 roundcube</define-tag>
<define-tag report_date>2021-11-27</define-tag>
<define-tag secrefs>CVE-2021-44025 CVE-2021-44026 Bug#1000156</define-tag>
<define-tag packages>roundcube</define-tag>
<define-tag isvulnerable>yes</define-tag>
<define-tag fixed>yes</define-tag>
<define-tag fixed-section>no</define-tag>

#use wml::debian::security



</dl>
