<define-tag pagetitle>DSA-4694-1 unbound</define-tag>
<define-tag report_date>2020-5-26</define-tag>
<define-tag secrefs>CVE-2020-12662 CVE-2020-12663</define-tag>
<define-tag packages>unbound</define-tag>
<define-tag isvulnerable>yes</define-tag>
<define-tag fixed>yes</define-tag>
<define-tag fixed-section>no</define-tag>

#use wml::debian::security



</dl>
