<define-tag pagetitle>DSA-4647-1 bluez</define-tag>
<define-tag report_date>2020-3-26</define-tag>
<define-tag secrefs>CVE-2020-0556 Bug#953770</define-tag>
<define-tag packages>bluez</define-tag>
<define-tag isvulnerable>yes</define-tag>
<define-tag fixed>yes</define-tag>
<define-tag fixed-section>no</define-tag>

#use wml::debian::security



</dl>
