<define-tag pagetitle>DSA-4739-1 webkit2gtk</define-tag>
<define-tag report_date>2020-8-03</define-tag>
<define-tag secrefs>CVE-2020-9862 CVE-2020-9893 CVE-2020-9894 CVE-2020-9895 CVE-2020-9915 CVE-2020-9925</define-tag>
<define-tag packages>webkit2gtk</define-tag>
<define-tag isvulnerable>yes</define-tag>
<define-tag fixed>yes</define-tag>
<define-tag fixed-section>no</define-tag>

#use wml::debian::security



</dl>
