<define-tag pagetitle>DSA-4697-1 gnutls28</define-tag>
<define-tag report_date>2020-6-06</define-tag>
<define-tag secrefs>CVE-2020-13777 Bug#962289</define-tag>
<define-tag packages>gnutls28</define-tag>
<define-tag isvulnerable>yes</define-tag>
<define-tag fixed>yes</define-tag>
<define-tag fixed-section>no</define-tag>

#use wml::debian::security



</dl>
