<define-tag pagetitle>DSA-4630-1 python-pysaml2</define-tag>
<define-tag report_date>2020-2-21</define-tag>
<define-tag secrefs>CVE-2020-5390</define-tag>
<define-tag packages>python-pysaml2</define-tag>
<define-tag isvulnerable>yes</define-tag>
<define-tag fixed>yes</define-tag>
<define-tag fixed-section>no</define-tag>

#use wml::debian::security



</dl>
