<define-tag pagetitle>DSA-4741-1 json-c</define-tag>
<define-tag report_date>2020-8-05</define-tag>
<define-tag secrefs>CVE-2020-12762</define-tag>
<define-tag packages>json-c</define-tag>
<define-tag isvulnerable>yes</define-tag>
<define-tag fixed>yes</define-tag>
<define-tag fixed-section>no</define-tag>

#use wml::debian::security



</dl>
