<define-tag pagetitle>DLA-2786-1 nghttp2</define-tag>
<define-tag report_date>2021-10-16</define-tag>
<define-tag secrefs>CVE-2018-1000168 CVE-2020-11080</define-tag>
<define-tag packages>nghttp2</define-tag>
<define-tag isvulnerable>yes</define-tag>
<define-tag fixed>yes</define-tag>
<define-tag fixed-section>no</define-tag>

#use wml::debian::security

