<define-tag pagetitle>DLA-2639-1 opendmarc</define-tag>
<define-tag report_date>2021-04-25</define-tag>
<define-tag secrefs>CVE-2020-12460 Bug#966464</define-tag>
<define-tag packages>opendmarc</define-tag>
<define-tag isvulnerable>yes</define-tag>
<define-tag fixed>yes</define-tag>
<define-tag fixed-section>no</define-tag>

#use wml::debian::security

