<define-tag pagetitle>DLA-2661-1 jetty9</define-tag>
<define-tag report_date>2021-05-14</define-tag>
<define-tag secrefs>CVE-2017-9735 CVE-2018-12536 CVE-2019-10241 CVE-2019-10247 CVE-2020-27216 Bug#864898 Bug#902774 Bug#928444</define-tag>
<define-tag packages>jetty9</define-tag>
<define-tag isvulnerable>yes</define-tag>
<define-tag fixed>yes</define-tag>
<define-tag fixed-section>no</define-tag>

#use wml::debian::security

