<define-tag pagetitle>DLA-2865-1 resiprocate</define-tag>
<define-tag report_date>2021-12-29</define-tag>
<define-tag secrefs>CVE-2017-11521 CVE-2018-12584 Bug#869404 Bug#905495</define-tag>
<define-tag packages>resiprocate</define-tag>
<define-tag isvulnerable>yes</define-tag>
<define-tag fixed>yes</define-tag>
<define-tag fixed-section>no</define-tag>

#use wml::debian::security

