<define-tag pagetitle>DLA-2776-1 apache2</define-tag>
<define-tag report_date>2021-10-02</define-tag>
<define-tag secrefs>CVE-2021-34798 CVE-2021-39275 CVE-2021-40438</define-tag>
<define-tag packages>apache2</define-tag>
<define-tag isvulnerable>yes</define-tag>
<define-tag fixed>yes</define-tag>
<define-tag fixed-section>no</define-tag>

#use wml::debian::security

