<define-tag pagetitle>DLA-2754-1 pywps</define-tag>
<define-tag report_date>2021-09-07</define-tag>
<define-tag secrefs>CVE-2021-39371</define-tag>
<define-tag packages>pywps</define-tag>
<define-tag isvulnerable>yes</define-tag>
<define-tag fixed>yes</define-tag>
<define-tag fixed-section>no</define-tag>

#use wml::debian::security

