<define-tag pagetitle>DLA-2664-1 curl</define-tag>
<define-tag report_date>2021-05-17</define-tag>
<define-tag secrefs>CVE-2021-22876 Bug#986269</define-tag>
<define-tag packages>curl</define-tag>
<define-tag isvulnerable>yes</define-tag>
<define-tag fixed>yes</define-tag>
<define-tag fixed-section>no</define-tag>

#use wml::debian::security

