<perl>

# complete list of architectures in debian/ and therefore, in unstable (sid)
@arches = (
#	alpha,
	amd64,
	arm64,
	armel,
	armhf,
#	hppa,
	'hurd-i386',
	'hurd-amd64',
	i386,
#	ia64,
#	m68k,
	mips,
	mips64el,
	mipsel,
	powerpc,
	ppc64el,
	riscv64,
#	s390,
	s390x,
#	sparc,
);

</perl>
