<define-tag pagetitle>DSA-5491-1 chromium</define-tag>
<define-tag report_date>2023-9-07</define-tag>
<define-tag secrefs>CVE-2023-4761 CVE-2023-4762 CVE-2023-4763 CVE-2023-4764</define-tag>
<define-tag packages>chromium</define-tag>
<define-tag isvulnerable>yes</define-tag>
<define-tag fixed>yes</define-tag>
<define-tag fixed-section>no</define-tag>

#use wml::debian::security



</dl>
