<define-tag pagetitle>DSA-5493-1 open-vm-tools</define-tag>
<define-tag report_date>2023-9-10</define-tag>
<define-tag secrefs>CVE-2023-20867 CVE-2023-20900 Bug#1050970</define-tag>
<define-tag packages>open-vm-tools</define-tag>
<define-tag isvulnerable>yes</define-tag>
<define-tag fixed>yes</define-tag>
<define-tag fixed-section>no</define-tag>

#use wml::debian::security



</dl>
