<define-tag pagetitle>DSA-5541-1 request-tracker5</define-tag>
<define-tag report_date>2023-10-30</define-tag>
<define-tag secrefs>CVE-2023-41259 CVE-2023-41260 CVE-2023-45024 Bug#1054517</define-tag>
<define-tag packages>request-tracker5</define-tag>
<define-tag isvulnerable>yes</define-tag>
<define-tag fixed>yes</define-tag>
<define-tag fixed-section>no</define-tag>

#use wml::debian::security



</dl>
