<define-tag pagetitle>DSA-5361-1 tiff</define-tag>
<define-tag report_date>2023-2-24</define-tag>
<define-tag secrefs>CVE-2023-0795 CVE-2023-0796 CVE-2023-0797 CVE-2023-0798 CVE-2023-0799 CVE-2023-0800 CVE-2023-0801 CVE-2023-0802 CVE-2023-0803 CVE-2023-0804 Bug#1031632</define-tag>
<define-tag packages>tiff</define-tag>
<define-tag isvulnerable>yes</define-tag>
<define-tag fixed>yes</define-tag>
<define-tag fixed-section>no</define-tag>

#use wml::debian::security



</dl>
