<define-tag pagetitle>DSA-5453-1 linux</define-tag>
<define-tag report_date>2023-7-16</define-tag>
<define-tag secrefs>CVE-2023-2156 CVE-2023-31248 CVE-2023-35001</define-tag>
<define-tag packages>linux</define-tag>
<define-tag isvulnerable>yes</define-tag>
<define-tag fixed>yes</define-tag>
<define-tag fixed-section>no</define-tag>

#use wml::debian::security



</dl>
