<define-tag pagetitle>DSA-5524-1 libcue</define-tag>
<define-tag report_date>2023-10-11</define-tag>
<define-tag secrefs>CVE-2023-43641</define-tag>
<define-tag packages>libcue</define-tag>
<define-tag isvulnerable>yes</define-tag>
<define-tag fixed>yes</define-tag>
<define-tag fixed-section>no</define-tag>

#use wml::debian::security



</dl>
