<define-tag pagetitle>DSA-5477-1 samba</define-tag>
<define-tag report_date>2023-8-14</define-tag>
<define-tag secrefs>CVE-2022-2127 CVE-2023-3347 CVE-2023-34966 CVE-2023-34967 CVE-2023-34968 Bug#1041043</define-tag>
<define-tag packages>samba</define-tag>
<define-tag isvulnerable>yes</define-tag>
<define-tag fixed>yes</define-tag>
<define-tag fixed-section>no</define-tag>

#use wml::debian::security



</dl>
