<define-tag pagetitle>DSA-5402-1 linux</define-tag>
<define-tag report_date>2023-5-13</define-tag>
<define-tag secrefs>CVE-2023-0386 CVE-2023-31436 CVE-2023-32233</define-tag>
<define-tag packages>linux</define-tag>
<define-tag isvulnerable>yes</define-tag>
<define-tag fixed>yes</define-tag>
<define-tag fixed-section>no</define-tag>

#use wml::debian::security



</dl>
