<define-tag pagetitle>DSA-5454-1 kanboard</define-tag>
<define-tag report_date>2023-7-16</define-tag>
<define-tag secrefs>CVE-2023-36813</define-tag>
<define-tag packages>kanboard</define-tag>
<define-tag isvulnerable>yes</define-tag>
<define-tag fixed>yes</define-tag>
<define-tag fixed-section>no</define-tag>

#use wml::debian::security



</dl>
