<define-tag pagetitle>DLA-820-1 viewvc</define-tag>
<define-tag report_date>2017-2-9</define-tag>
<define-tag secrefs>CVE-2017-5938 Bug#854681</define-tag>
<define-tag packages>viewvc</define-tag>
<define-tag isvulnerable>yes</define-tag>
<define-tag fixed>yes</define-tag>
<define-tag fixed-section>no</define-tag>

#use wml::debian::security

