<define-tag pagetitle>DLA-924-2 tomcat7</define-tag>
<define-tag report_date>2017-5-10</define-tag>
<define-tag secrefs>Bug#861872</define-tag>
<define-tag packages>tomcat7</define-tag>
<define-tag isvulnerable>yes</define-tag>
<define-tag fixed>yes</define-tag>
<define-tag fixed-section>no</define-tag>

#use wml::debian::security

