<define-tag pagetitle>DLA-922-1 linux</define-tag>
<define-tag report_date>2017-4-28</define-tag>
<define-tag secrefs>CVE-2016-2188 CVE-2016-9604 CVE-2016-10200 CVE-2017-2647 CVE-2017-2671 CVE-2017-5967 CVE-2017-5970 CVE-2017-6951 CVE-2017-7184 CVE-2017-7261 CVE-2017-7273 CVE-2017-7294 CVE-2017-7308 CVE-2017-7472 CVE-2017-7616 CVE-2017-7618</define-tag>
<define-tag packages>linux</define-tag>
<define-tag isvulnerable>yes</define-tag>
<define-tag fixed>yes</define-tag>
<define-tag fixed-section>no</define-tag>

#use wml::debian::security

