<define-tag pagetitle>DLA-839-1 tnef</define-tag>
<define-tag report_date>2017-2-27</define-tag>
<define-tag secrefs>CVE-2017-6307 CVE-2017-6308 CVE-2017-6309 CVE-2017-6310</define-tag>
<define-tag packages>tnef</define-tag>
<define-tag isvulnerable>yes</define-tag>
<define-tag fixed>yes</define-tag>
<define-tag fixed-section>no</define-tag>

#use wml::debian::security

