<define-tag pagetitle>DLA-854-1 icoutils</define-tag>
<define-tag report_date>2017-3-13</define-tag>
<define-tag secrefs>CVE-2017-6009 CVE-2017-6010 CVE-2017-6011 Bug#854054 Bug#854050</define-tag>
<define-tag packages>icoutils</define-tag>
<define-tag isvulnerable>yes</define-tag>
<define-tag fixed>yes</define-tag>
<define-tag fixed-section>no</define-tag>

#use wml::debian::security

