<define-tag pagetitle>DLA-789-1 icoutils</define-tag>
<define-tag report_date>2017-1-17</define-tag>
<define-tag secrefs>CVE-2017-5208 CVE-2017-5331 CVE-2017-5332 CVE-2017-5333 Bug#850017</define-tag>
<define-tag packages>icoutils</define-tag>
<define-tag isvulnerable>yes</define-tag>
<define-tag fixed>yes</define-tag>
<define-tag fixed-section>no</define-tag>

#use wml::debian::security

