<define-tag pagetitle>DLA-781-2 asterisk</define-tag>
<define-tag report_date>2017-1-27</define-tag>
<define-tag secrefs>CVE-2014-2287</define-tag>
<define-tag packages>asterisk</define-tag>
<define-tag isvulnerable>yes</define-tag>
<define-tag fixed>yes</define-tag>
<define-tag fixed-section>no</define-tag>

#use wml::debian::security

