<define-tag pagetitle>DLA-3316-1 postgresql-11</define-tag>
<define-tag report_date>2023-02-10</define-tag>
<define-tag secrefs>CVE-2022-41862</define-tag>
<define-tag packages>postgresql-11</define-tag>
<define-tag isvulnerable>yes</define-tag>
<define-tag fixed>yes</define-tag>
<define-tag fixed-section>no</define-tag>

#use wml::debian::security

