<define-tag pagetitle>DLA-3488-1 node-tough-cookie</define-tag>
<define-tag report_date>2023-07-10</define-tag>
<define-tag secrefs>CVE-2023-26136</define-tag>
<define-tag packages>node-tough-cookie</define-tag>
<define-tag isvulnerable>yes</define-tag>
<define-tag fixed>yes</define-tag>
<define-tag fixed-section>no</define-tag>

#use wml::debian::security

