<define-tag pagetitle>DLA-3607-1 gnome-boxes</define-tag>
<define-tag report_date>2023-10-07</define-tag>
<define-tag packages>gnome-boxes</define-tag>
<define-tag isvulnerable>yes</define-tag>
<define-tag fixed>yes</define-tag>
<define-tag fixed-section>no</define-tag>

#use wml::debian::security

