<define-tag pagetitle>DLA-3420-1 golang-websocket</define-tag>
<define-tag report_date>2023-5-14</define-tag>
<define-tag secrefs>CVE-2020-27813</define-tag>
<define-tag packages>golang-websocket</define-tag>
<define-tag isvulnerable>yes</define-tag>
<define-tag fixed>yes</define-tag>
<define-tag fixed-section>no</define-tag>

#use wml::debian::security

