<define-tag pagetitle>DLA-3626-1 krb5</define-tag>
<define-tag report_date>2023-10-22</define-tag>
<define-tag secrefs>CVE-2023-36054 Bug#1043431</define-tag>
<define-tag packages>krb5</define-tag>
<define-tag isvulnerable>yes</define-tag>
<define-tag fixed>yes</define-tag>
<define-tag fixed-section>no</define-tag>

#use wml::debian::security

