<define-tag pagetitle>DLA-3576-1 gsl</define-tag>
<define-tag report_date>2023-9-21</define-tag>
<define-tag secrefs>CVE-2020-35357</define-tag>
<define-tag packages>gsl</define-tag>
<define-tag isvulnerable>yes</define-tag>
<define-tag fixed>yes</define-tag>
<define-tag fixed-section>no</define-tag>

#use wml::debian::security

