<define-tag pagetitle>DLA-3598-1 libvpx</define-tag>
<define-tag report_date>2023-10-01</define-tag>
<define-tag secrefs>CVE-2023-5217 CVE-2023-44488</define-tag>
<define-tag packages>libvpx</define-tag>
<define-tag isvulnerable>yes</define-tag>
<define-tag fixed>yes</define-tag>
<define-tag fixed-section>no</define-tag>

#use wml::debian::security

