<define-tag pagetitle>DLA-3343-1 mono</define-tag>
<define-tag report_date>2023-02-25</define-tag>
<define-tag secrefs>CVE-2023-26314 Bug#972146</define-tag>
<define-tag packages>mono</define-tag>
<define-tag isvulnerable>yes</define-tag>
<define-tag fixed>yes</define-tag>
<define-tag fixed-section>no</define-tag>

#use wml::debian::security

