<define-tag pagetitle>DLA-3416-1 emacs</define-tag>
<define-tag report_date>2023-5-10</define-tag>
<define-tag secrefs>CVE-2022-48337 CVE-2022-48339 CVE-2023-28617 Bug#1031730 Bug#1033342</define-tag>
<define-tag packages>emacs</define-tag>
<define-tag isvulnerable>yes</define-tag>
<define-tag fixed>yes</define-tag>
<define-tag fixed-section>no</define-tag>

#use wml::debian::security

