<define-tag pagetitle>DLA-3445-1 cpio</define-tag>
<define-tag report_date>2023-06-04</define-tag>
<define-tag secrefs>CVE-2019-14866 CVE-2021-38185 Bug#941412 Bug#992045</define-tag>
<define-tag packages>cpio</define-tag>
<define-tag isvulnerable>yes</define-tag>
<define-tag fixed>yes</define-tag>
<define-tag fixed-section>no</define-tag>

#use wml::debian::security

