<define-tag pagetitle>DLA-3635-1 node-browserify-sign</define-tag>
<define-tag report_date>2023-10-29</define-tag>
<define-tag secrefs>CVE-2023-46234 Bug#1054667</define-tag>
<define-tag packages>node-browserify-sign</define-tag>
<define-tag isvulnerable>yes</define-tag>
<define-tag fixed>yes</define-tag>
<define-tag fixed-section>no</define-tag>

#use wml::debian::security

