<define-tag pagetitle>DLA-3645-1 trafficserver</define-tag>
<define-tag report_date>2023-11-05</define-tag>
<define-tag secrefs>CVE-2023-41752 CVE-2023-44487 Bug#1054427</define-tag>
<define-tag packages>trafficserver</define-tag>
<define-tag isvulnerable>yes</define-tag>
<define-tag fixed>yes</define-tag>
<define-tag fixed-section>no</define-tag>

#use wml::debian::security

