<define-tag pagetitle>DLA-3575-1 python2.7</define-tag>
<define-tag report_date>2023-09-20</define-tag>
<define-tag secrefs>CVE-2021-23336 CVE-2022-0391 CVE-2022-48560 CVE-2022-48565 CVE-2022-48566 CVE-2023-24329 CVE-2023-40217</define-tag>
<define-tag packages>python2.7</define-tag>
<define-tag isvulnerable>yes</define-tag>
<define-tag fixed>yes</define-tag>
<define-tag fixed-section>no</define-tag>

#use wml::debian::security

