<define-tag pagetitle>DLA-3319-1 firefox-esr</define-tag>
<define-tag report_date>2023-02-16</define-tag>
<define-tag secrefs>CVE-2023-0767 CVE-2023-25728 CVE-2023-25729 CVE-2023-25730 CVE-2023-25732 CVE-2023-25735 CVE-2023-25737 CVE-2023-25739 CVE-2023-25742 CVE-2023-25744 CVE-2023-25746</define-tag>
<define-tag packages>firefox-esr</define-tag>
<define-tag isvulnerable>yes</define-tag>
<define-tag fixed>yes</define-tag>
<define-tag fixed-section>no</define-tag>

#use wml::debian::security

