<define-tag pagetitle>DLA-3369-1 runc</define-tag>
<define-tag report_date>2023-03-27</define-tag>
<define-tag secrefs>CVE-2019-16884 CVE-2019-19921 CVE-2021-30465 CVE-2022-29162 CVE-2023-27561 Bug#942026 Bug#988768</define-tag>
<define-tag packages>runc</define-tag>
<define-tag isvulnerable>yes</define-tag>
<define-tag fixed>yes</define-tag>
<define-tag fixed-section>no</define-tag>

#use wml::debian::security

