<define-tag pagetitle>DLA-3628-1 dbus</define-tag>
<define-tag report_date>2023-10-23</define-tag>
<define-tag secrefs>CVE-2023-34969</define-tag>
<define-tag packages>dbus</define-tag>
<define-tag isvulnerable>yes</define-tag>
<define-tag fixed>yes</define-tag>
<define-tag fixed-section>no</define-tag>

#use wml::debian::security

