<define-tag pagetitle>DLA-3572-1 libyang</define-tag>
<define-tag report_date>2023-9-19</define-tag>
<define-tag secrefs>CVE-2019-20391 CVE-2019-20392 CVE-2019-20393 CVE-2019-20394 CVE-2019-20395 CVE-2019-20396 CVE-2019-20397 CVE-2019-20398</define-tag>
<define-tag packages>libyang</define-tag>
<define-tag isvulnerable>yes</define-tag>
<define-tag fixed>yes</define-tag>
<define-tag fixed-section>no</define-tag>

#use wml::debian::security

