<define-tag pagetitle>DLA-2378-1 openssl1.0</define-tag>
<define-tag report_date>2020-09-25</define-tag>
<define-tag secrefs>CVE-2020-1968</define-tag>
<define-tag packages>openssl1.0</define-tag>
<define-tag isvulnerable>yes</define-tag>
<define-tag fixed>yes</define-tag>
<define-tag fixed-section>no</define-tag>

#use wml::debian::security

