<define-tag pagetitle>DLA-2374-1 gnome-shell</define-tag>
<define-tag report_date>2020-09-15</define-tag>
<define-tag secrefs>CVE-2020-17489</define-tag>
<define-tag packages>gnome-shell</define-tag>
<define-tag isvulnerable>yes</define-tag>
<define-tag fixed>yes</define-tag>
<define-tag fixed-section>no</define-tag>

#use wml::debian::security
