<define-tag pagetitle>DLA-2454-1 rclone</define-tag>
<define-tag report_date>2020-11-19</define-tag>
<define-tag secrefs>CVE-2019-11840</define-tag>
<define-tag packages>rclone</define-tag>
<define-tag isvulnerable>yes</define-tag>
<define-tag fixed>yes</define-tag>
<define-tag fixed-section>no</define-tag>

#use wml::debian::security

