<define-tag pagetitle>DLA-1420-1 cinnamon</define-tag>
<define-tag report_date>2018-7-13</define-tag>
<define-tag secrefs>CVE-2018-13054 Bug##903201</define-tag>
<define-tag packages>cinnamon</define-tag>
<define-tag isvulnerable>yes</define-tag>
<define-tag fixed>yes</define-tag>
<define-tag fixed-section>no</define-tag>

#use wml::debian::security

