<define-tag pagetitle>DLA-1362-1 gcc-4.9-backport</define-tag>
<define-tag report_date>2018-4-25</define-tag>
<define-tag packages>gcc-4.9-backport</define-tag>
<define-tag isvulnerable>yes</define-tag>
<define-tag fixed>yes</define-tag>
<define-tag fixed-section>no</define-tag>

#use wml::debian::security

