<define-tag pagetitle>DLA-1502-1 mgetty</define-tag>
<define-tag report_date>2018-9-12</define-tag>
<define-tag secrefs>CVE-2018-16741</define-tag>
<define-tag packages>mgetty</define-tag>
<define-tag isvulnerable>yes</define-tag>
<define-tag fixed>yes</define-tag>
<define-tag fixed-section>no</define-tag>

#use wml::debian::security

