<perl>

# list of architectures, ordered by Popularity Contest on 2014-04-26.
@arches = (
#	alpha,
	amd64,
#	arm,
	arm64,
	armel,
	armhf,
#	hppa,
#	'hurd-i386',
	i386,
#	ia64,
#	'kfreebsd-amd64',
#	'kfreebsd-i386',
#	m68k,
#	mips,
	mipsel,
	mips64el,
#	powerpc,
#	ppc64,
	ppc64el,
#	s390,
	s390x,
#	sh4,
#	sparc,
);

# list of languages install manual is translated to
%langsinstall = (
	english => "en",
	catalan => "ca",
	czech => "cs",
	danish => "da",
	german => "de",
	greek => "el",
	spanish => "es",
#	basque => "eu,
#	finnish => "fi",
	french => "fr",
#	hungarian => "hu",
	indonesian => "id",
	italian => "it",
	japanese => "ja",
	korean => "ko",
	dutch => "nl",
#	norwegian_nynorsk => "nn",
	portuguese => "pt",
#	portuguese_br => "pt-br",
	romanian => "ro",
	russian => "ru",
	swedish => "sv",
#	tagalog => "tl",
	vietnamese => "vi",
	chinese_cn => "zh-cn",
#	chinese => "zh-tw",
);

# list of languages release notes are translated to
%langsrelnotes = (
	english => "en",
	belarusian => "be",
	catalan => "ca",
	czech => "cs",
	danish => "da",
	german => "de",
	greek => "el",
	spanish => "es",
	finnish => "fi",
	french => "fr",
	galician=> "gl",
	italian => "it",
	japanese => "ja",
	lithuanian => "lt",
	malayalam => "ml",
	norwegian_bokmal => "nb",
	dutch => "nl",
	polish => "pl",
	portuguese => "pt",
	portuguese_br => "pt-br",
	romanian => "ro",
	russian => "ru",
	slovak => "sk",
	swedish => "sv",
	vietnamese => "vi",
	chinese_cn => "zh-cn",
	chinese => "zh-tw",
);

</perl>


### While bookworm is stable, we can *reuse* the tags defined in
#### templates/debian/release_images.wml.
#### When the website gets prepared for the next stable release,
#### the tags should be defined here instead (see previous releases
#### for examples).
#### Note that images for the new oldstable release will be moved to
#### cdimage/archive at the time of the release!
#
### Next line should be changed to 'wml::debian::installer' when
### preparing for next stable release; don't forget the Makefile!
#use wml::debian::release_images

<define-tag netinst-images>
<stable-netinst-images />
</define-tag>

<define-tag full-cd-images>
<stable-full-cd-images />
</define-tag>

<define-tag full-cd-torrent>
<stable-full-cd-torrent />
</define-tag>

<define-tag full-cd-jigdo>
<stable-full-cd-jigdo />
</define-tag>

<define-tag full-dvd-images>
<stable-full-dvd-images />
</define-tag>

<define-tag full-dvd-torrent>
<stable-full-dvd-torrent />
</define-tag>

<define-tag full-dvd-jigdo>
<stable-full-dvd-jigdo />
</define-tag>

<define-tag full-bluray-jigdo>
<stable-full-bluray-jigdo />
</define-tag>

<define-tag other-images>
<stable-other-images />
</define-tag>

<define-tag small-non-free-cd-images>
<stable-small-non-free-cd-images />
</define-tag>
