<define-tag pagetitle>DSA-4458-1 cyrus-imapd</define-tag>
<define-tag report_date>2019-6-08</define-tag>
<define-tag secrefs>CVE-2019-11356</define-tag>
<define-tag packages>cyrus-imapd</define-tag>
<define-tag isvulnerable>yes</define-tag>
<define-tag fixed>yes</define-tag>
<define-tag fixed-section>no</define-tag>

#use wml::debian::security



</dl>
