<define-tag pagetitle>DSA-5045-1 thunderbird</define-tag>
<define-tag report_date>2022-1-14</define-tag>
<define-tag secrefs>CVE-2021-4140  CVE-2022-22737 CVE-2022-22738 CVE-2022-22739 CVE-2022-22740 CVE-2022-22741 CVE-2022-22742 CVE-2022-22743 CVE-2022-22745 CVE-2022-22747 CVE-2022-22748 CVE-2022-22751</define-tag>
<define-tag packages>thunderbird</define-tag>
<define-tag isvulnerable>yes</define-tag>
<define-tag fixed>yes</define-tag>
<define-tag fixed-section>no</define-tag>

#use wml::debian::security



</dl>
