<define-tag pagetitle>DSA-5205-1 samba</define-tag>
<define-tag report_date>2022-8-11</define-tag>
<define-tag secrefs>CVE-2022-2031 CVE-2022-32742 CVE-2022-32744 CVE-2022-32745 CVE-2022-32746 Bug#1016449</define-tag>
<define-tag packages>samba</define-tag>
<define-tag isvulnerable>yes</define-tag>
<define-tag fixed>yes</define-tag>
<define-tag fixed-section>no</define-tag>

#use wml::debian::security



</dl>
