<define-tag pagetitle>DSA-5167-1 firejail</define-tag>
<define-tag report_date>2022-6-22</define-tag>
<define-tag secrefs>CVE-2022-31214 Bug#1012510</define-tag>
<define-tag packages>firejail</define-tag>
<define-tag isvulnerable>yes</define-tag>
<define-tag fixed>yes</define-tag>
<define-tag fixed-section>no</define-tag>

#use wml::debian::security



</dl>
