<define-tag pagetitle>DSA-5215-1 open-vm-tools</define-tag>
<define-tag report_date>2022-8-24</define-tag>
<define-tag secrefs>CVE-2022-31676 Bug#1018012</define-tag>
<define-tag packages>open-vm-tools</define-tag>
<define-tag isvulnerable>yes</define-tag>
<define-tag fixed>yes</define-tag>
<define-tag fixed-section>no</define-tag>

#use wml::debian::security



</dl>
