<define-tag pagetitle>DSA-5081-1 redis</define-tag>
<define-tag report_date>2022-2-18</define-tag>
<define-tag secrefs>CVE-2022-0543 Bug#1005787</define-tag>
<define-tag packages>redis</define-tag>
<define-tag isvulnerable>yes</define-tag>
<define-tag fixed>yes</define-tag>
<define-tag fixed-section>no</define-tag>

#use wml::debian::security



</dl>
