<define-tag pagetitle>DSA-5302-1 chromium</define-tag>
<define-tag report_date>2022-12-16</define-tag>
<define-tag secrefs>CVE-2022-4436 CVE-2022-4437 CVE-2022-4438 CVE-2022-4439 CVE-2022-4440</define-tag>
<define-tag packages>chromium</define-tag>
<define-tag isvulnerable>yes</define-tag>
<define-tag fixed>yes</define-tag>
<define-tag fixed-section>no</define-tag>

#use wml::debian::security



</dl>
