<define-tag pagetitle>DSA-5137-1 needrestart</define-tag>
<define-tag report_date>2022-5-17</define-tag>
<define-tag secrefs>CVE-2022-30688</define-tag>
<define-tag packages>needrestart</define-tag>
<define-tag isvulnerable>yes</define-tag>
<define-tag fixed>yes</define-tag>
<define-tag fixed-section>no</define-tag>

#use wml::debian::security



</dl>
