<define-tag pagetitle>DLA-583-1 lighttpd</define-tag>
<define-tag report_date>2016-8-3</define-tag>
<define-tag secrefs>CVE-2016-1000212 Bug#832571</define-tag>
<define-tag packages>lighttpd</define-tag>
<define-tag isvulnerable>yes</define-tag>
<define-tag fixed>yes</define-tag>
<define-tag fixed-section>no</define-tag>

#use wml::debian::security

