<define-tag pagetitle>DLA-455-1 asterisk</define-tag>
<define-tag report_date>2016-5-3</define-tag>
<define-tag secrefs>CVE-2014-2286 CVE-2014-4046 CVE-2014-6610 CVE-2014-8412 CVE-2014-8418 CVE-2015-3008 Bug#741313 Bug#762164 Bug#771463 Bug#782411</define-tag>
<define-tag packages>asterisk</define-tag>
<define-tag isvulnerable>yes</define-tag>
<define-tag fixed>yes</define-tag>
<define-tag fixed-section>no</define-tag>

#use wml::debian::security

